EESchema Schematic File Version 4
LIBS:ATtiny13A Morse Keyer-cache
EELAYER 29 0
EELAYER END
$Descr A4 11693 8268
encoding utf-8
Sheet 1 1
Title "ATTiny13A Keyer"
Date "2019-12-07"
Rev "3"
Comp ""
Comment1 "Designed by Arijit Kr Haldar"
Comment2 "Iambic A Mode"
Comment3 "Straight Key Mode"
Comment4 ""
$EndDescr
$Comp
L Diode:1N4007 D1
U 1 1 5DEBAF8D
P 1200 1000
F 0 "D1" H 1200 781 50  0000 C CNN
F 1 "1N4007" H 1200 874 50  0000 C CNN
F 2 "Diode_SMD:D_SMB" H 1200 825 50  0001 C CNN
F 3 "http://www.vishay.com/docs/88503/1n4001.pdf" H 1200 1000 50  0001 C CNN
	1    1200 1000
	-1   0    0    1   
$EndComp
$Comp
L Mechanical:MountingHole_Pad H1
U 1 1 5DEBC80A
P 700 1000
F 0 "H1" V 940 1003 50  0000 C CNN
F 1 "13.8V (+)" V 847 1003 50  0000 C CNN
F 2 "" H 700 1000 50  0001 C CNN
F 3 "~" H 700 1000 50  0001 C CNN
	1    700  1000
	0    -1   -1   0   
$EndComp
$Comp
L Mechanical:MountingHole_Pad H2
U 1 1 5DEBCBEB
P 700 1400
F 0 "H2" V 940 1403 50  0000 C CNN
F 1 "13.8V (-)" V 847 1403 50  0000 C CNN
F 2 "" H 700 1400 50  0001 C CNN
F 3 "~" H 700 1400 50  0001 C CNN
	1    700  1400
	0    -1   -1   0   
$EndComp
$Comp
L Device:CP1 C2
U 1 1 5DEBD211
P 1850 1150
F 0 "C2" H 1965 1197 50  0000 L CNN
F 1 "100u" H 1965 1104 50  0000 L CNN
F 2 "" H 1850 1150 50  0001 C CNN
F 3 "~" H 1850 1150 50  0001 C CNN
	1    1850 1150
	1    0    0    -1  
$EndComp
$Comp
L Device:R R1
U 1 1 5DEBD615
P 1600 1000
F 0 "R1" V 1390 1000 50  0000 C CNN
F 1 "100R" V 1483 1000 50  0000 C CNN
F 2 "" V 1530 1000 50  0001 C CNN
F 3 "~" H 1600 1000 50  0001 C CNN
	1    1600 1000
	0    1    1    0   
$EndComp
$Comp
L Device:CP1 C4
U 1 1 5DEBD979
P 3100 1150
F 0 "C4" H 3215 1197 50  0000 L CNN
F 1 "100u" H 3215 1104 50  0000 L CNN
F 2 "" H 3100 1150 50  0001 C CNN
F 3 "~" H 3100 1150 50  0001 C CNN
	1    3100 1150
	1    0    0    -1  
$EndComp
$Comp
L Device:C C3
U 1 1 5DEBDFD0
P 2250 1150
F 0 "C3" H 2365 1197 50  0000 L CNN
F 1 "0.1u" H 2365 1104 50  0000 L CNN
F 2 "" H 2288 1000 50  0001 C CNN
F 3 "~" H 2250 1150 50  0001 C CNN
	1    2250 1150
	1    0    0    -1  
$EndComp
$Comp
L Device:C C5
U 1 1 5DEBEA33
P 3500 1150
F 0 "C5" H 3615 1197 50  0000 L CNN
F 1 "0.1u" H 3615 1104 50  0000 L CNN
F 2 "" H 3538 1000 50  0001 C CNN
F 3 "~" H 3500 1150 50  0001 C CNN
	1    3500 1150
	1    0    0    -1  
$EndComp
Wire Wire Line
	2450 1000 2300 1000
Wire Wire Line
	2250 1000 1850 1000
Connection ~ 2250 1000
Connection ~ 1850 1000
Wire Wire Line
	1850 1000 1750 1000
$Comp
L Device:CP1 C1
U 1 1 5DEC0E46
P 1350 1150
F 0 "C1" H 1465 1197 50  0000 L CNN
F 1 "100u" H 1465 1104 50  0000 L CNN
F 2 "" H 1350 1150 50  0001 C CNN
F 3 "~" H 1350 1150 50  0001 C CNN
	1    1350 1150
	1    0    0    -1  
$EndComp
Wire Wire Line
	1450 1000 1350 1000
Connection ~ 1350 1000
Wire Wire Line
	800  1000 1050 1000
$Comp
L Device:R R4
U 1 1 5DEC3A7F
P 3650 1000
F 0 "R4" V 3440 1000 50  0000 C CNN
F 1 "1K" V 3533 1000 50  0000 C CNN
F 2 "" V 3580 1000 50  0001 C CNN
F 3 "~" H 3650 1000 50  0001 C CNN
	1    3650 1000
	0    1    1    0   
$EndComp
Wire Wire Line
	3050 1000 3100 1000
Connection ~ 3500 1000
Connection ~ 3100 1000
Wire Wire Line
	3100 1000 3500 1000
$Comp
L Device:LED D2
U 1 1 5DEC4526
P 3850 1150
F 0 "D2" V 3890 1031 50  0000 R CNN
F 1 "ON_LED" V 3797 1031 50  0000 R CNN
F 2 "LED_THT:LED_D3.0mm" H 3850 1150 50  0001 C CNN
F 3 "~" H 3850 1150 50  0001 C CNN
	1    3850 1150
	0    -1   -1   0   
$EndComp
Wire Wire Line
	3850 1000 3800 1000
Wire Wire Line
	800  1400 1350 1400
Wire Wire Line
	3850 1400 3850 1300
Wire Wire Line
	3500 1300 3500 1400
Connection ~ 3500 1400
Wire Wire Line
	3500 1400 3850 1400
Wire Wire Line
	3100 1300 3100 1400
Connection ~ 3100 1400
Wire Wire Line
	3100 1400 3500 1400
Wire Wire Line
	2750 1300 2750 1400
Connection ~ 2750 1400
Wire Wire Line
	2750 1400 3100 1400
Wire Wire Line
	2250 1300 2250 1400
Connection ~ 2250 1400
Wire Wire Line
	2250 1400 2750 1400
Wire Wire Line
	1850 1300 1850 1400
Connection ~ 1850 1400
Wire Wire Line
	1850 1400 2250 1400
Wire Wire Line
	1350 1300 1350 1400
Connection ~ 1350 1400
Wire Wire Line
	1350 1400 1750 1400
$Comp
L power:+12V #PWR01
U 1 1 5DEC663F
P 1350 750
F 0 "#PWR01" H 1350 600 50  0001 C CNN
F 1 "+12V" H 1365 925 50  0000 C CNN
F 2 "" H 1350 750 50  0001 C CNN
F 3 "" H 1350 750 50  0001 C CNN
	1    1350 750 
	1    0    0    -1  
$EndComp
Wire Wire Line
	1350 750  1350 850 
$Comp
L power:+5V #PWR05
U 1 1 5DEC70F2
P 3100 800
F 0 "#PWR05" H 3100 650 50  0001 C CNN
F 1 "+5V" H 3115 975 50  0000 C CNN
F 2 "" H 3100 800 50  0001 C CNN
F 3 "" H 3100 800 50  0001 C CNN
	1    3100 800 
	1    0    0    -1  
$EndComp
Wire Wire Line
	3100 800  3100 1000
$Comp
L power:GND #PWR02
U 1 1 5DEC7823
P 1350 1400
F 0 "#PWR02" H 1350 1150 50  0001 C CNN
F 1 "GND" H 1355 1225 50  0000 C CNN
F 2 "" H 1350 1400 50  0001 C CNN
F 3 "" H 1350 1400 50  0001 C CNN
	1    1350 1400
	1    0    0    -1  
$EndComp
$Comp
L power:PWR_FLAG #FLG02
U 1 1 5DEC7F9C
P 1750 1400
F 0 "#FLG02" H 1750 1475 50  0001 C CNN
F 1 "PWR_FLAG" H 1750 1575 50  0000 C CNN
F 2 "" H 1750 1400 50  0001 C CNN
F 3 "~" H 1750 1400 50  0001 C CNN
	1    1750 1400
	-1   0    0    1   
$EndComp
Connection ~ 1750 1400
Wire Wire Line
	1750 1400 1850 1400
$Comp
L power:PWR_FLAG #FLG01
U 1 1 5DEC8716
P 1700 750
F 0 "#FLG01" H 1700 825 50  0001 C CNN
F 1 "PWR_FLAG" H 1700 925 50  0001 C CNN
F 2 "" H 1700 750 50  0001 C CNN
F 3 "~" H 1700 750 50  0001 C CNN
	1    1700 750 
	1    0    0    -1  
$EndComp
Wire Wire Line
	1700 750  1500 750 
Wire Wire Line
	1500 750  1500 850 
Wire Wire Line
	1500 850  1350 850 
Connection ~ 1350 850 
Wire Wire Line
	1350 850  1350 1000
Wire Wire Line
	2300 850  2300 1000
Connection ~ 2300 1000
Wire Wire Line
	2300 1000 2250 1000
Wire Notes Line
	500  1650 4350 1650
Text Notes 3750 1600 0    50   ~ 10
POWER BLOCK
$Comp
L power:PWR_FLAG #FLG03
U 1 1 5DEC8342
P 2300 850
F 0 "#FLG03" H 2300 925 50  0001 C CNN
F 1 "PWR_FLAG" H 2300 1025 50  0001 C CNN
F 2 "" H 2300 850 50  0001 C CNN
F 3 "~" H 2300 850 50  0001 C CNN
	1    2300 850 
	1    0    0    -1  
$EndComp
$Comp
L MCU_Microchip_ATtiny:ATtiny13A-PU U2
U 1 1 5DED4AED
P 5450 1300
F 0 "U2" H 4920 1347 50  0000 R CNN
F 1 "ATtiny13A-PU" H 4920 1254 50  0000 R CNN
F 2 "Package_SO:SOIC-8_3.9x4.9mm_P1.27mm" H 5450 1300 50  0001 C CIN
F 3 "http://ww1.microchip.com/downloads/en/DeviceDoc/doc8126.pdf" H 5450 1300 50  0001 C CNN
	1    5450 1300
	1    0    0    -1  
$EndComp
$Comp
L power:+5V #PWR011
U 1 1 5DED4F7D
P 5450 700
F 0 "#PWR011" H 5450 550 50  0001 C CNN
F 1 "+5V" H 5465 875 50  0000 C CNN
F 2 "" H 5450 700 50  0001 C CNN
F 3 "" H 5450 700 50  0001 C CNN
	1    5450 700 
	1    0    0    -1  
$EndComp
$Comp
L power:GND #PWR012
U 1 1 5DED57D1
P 5450 1900
F 0 "#PWR012" H 5450 1650 50  0001 C CNN
F 1 "GND" H 5455 1725 50  0000 C CNN
F 2 "" H 5450 1900 50  0001 C CNN
F 3 "" H 5450 1900 50  0001 C CNN
	1    5450 1900
	1    0    0    -1  
$EndComp
$Comp
L Device:R R9
U 1 1 5DED5D5F
P 4700 1000
F 0 "R9" H 4770 1047 50  0000 L CNN
F 1 "10K" H 4770 954 50  0000 L CNN
F 2 "" V 4630 1000 50  0001 C CNN
F 3 "~" H 4700 1000 50  0001 C CNN
	1    4700 1000
	1    0    0    -1  
$EndComp
Wire Wire Line
	6050 1500 6050 1600
Wire Wire Line
	6050 1600 5150 1600
Wire Wire Line
	5150 1600 5150 1150
Wire Wire Line
	5150 1150 4700 1150
Wire Wire Line
	4700 850  4700 700 
Wire Wire Line
	4700 700  5450 700 
Connection ~ 5450 700 
$Comp
L Device:R R11
U 1 1 5DED8FF1
P 6400 1300
F 0 "R11" V 6190 1300 50  0000 C CNN
F 1 "1K" V 6283 1300 50  0000 C CNN
F 2 "" V 6330 1300 50  0001 C CNN
F 3 "~" H 6400 1300 50  0001 C CNN
	1    6400 1300
	0    1    1    0   
$EndComp
$Comp
L Device:LED D3
U 1 1 5DED93E1
P 6700 1300
F 0 "D3" H 6693 1041 50  0000 C CNN
F 1 "KEY_LED" H 6693 1134 50  0000 C CNN
F 2 "LED_THT:LED_D3.0mm" H 6700 1300 50  0001 C CNN
F 3 "~" H 6700 1300 50  0001 C CNN
	1    6700 1300
	-1   0    0    1   
$EndComp
$Comp
L power:GND #PWR013
U 1 1 5DED9DF3
P 6850 1300
F 0 "#PWR013" H 6850 1050 50  0001 C CNN
F 1 "GND" H 6855 1125 50  0000 C CNN
F 2 "" H 6850 1300 50  0001 C CNN
F 3 "" H 6850 1300 50  0001 C CNN
	1    6850 1300
	1    0    0    -1  
$EndComp
Text GLabel 6050 1000 2    50   Input ~ 0
DIT
Text GLabel 6050 1100 2    50   Input ~ 0
DAH
Text GLabel 6050 1400 2    50   Input ~ 0
OUT
Wire Wire Line
	6250 1300 6050 1300
$Comp
L Device:R_POT RV3
U 1 1 5DEDC966
P 6950 750
F 0 "RV3" H 6880 703 50  0000 R CNN
F 1 "10K" H 6880 796 50  0000 R CNN
F 2 "" H 6950 750 50  0001 C CNN
F 3 "~" H 6950 750 50  0001 C CNN
	1    6950 750 
	-1   0    0    1   
$EndComp
$Comp
L Device:C C11
U 1 1 5DEDD3B8
P 6650 900
F 0 "C11" V 6395 900 50  0000 C CNN
F 1 "0.1u" V 6488 900 50  0000 C CNN
F 2 "" H 6688 750 50  0001 C CNN
F 3 "~" H 6650 900 50  0001 C CNN
	1    6650 900 
	0    1    1    0   
$EndComp
Wire Wire Line
	6950 900  6800 900 
Wire Wire Line
	6800 750  6500 750 
Wire Wire Line
	6500 750  6500 900 
Wire Wire Line
	6950 900  6950 1850
Wire Wire Line
	6950 1850 5450 1850
Wire Wire Line
	5450 1850 5450 1900
Connection ~ 6950 900 
Connection ~ 5450 1900
Wire Wire Line
	5450 700  6050 700 
Wire Wire Line
	6050 700  6050 600 
Wire Wire Line
	6050 600  6950 600 
Wire Wire Line
	6500 900  6500 1200
Wire Wire Line
	6500 1200 6050 1200
Connection ~ 6500 900 
Wire Notes Line
	4350 2100 7300 2100
Wire Notes Line
	4350 500  4350 2100
Text Notes 7250 2050 2    50   ~ 10
ATTiny13A
$Comp
L Transistor_BJT:BC547 Q2
U 1 1 5DEEADB5
P 4400 3900
F 0 "Q2" H 4591 3947 50  0000 L CNN
F 1 "2N4401" H 4591 3854 50  0000 L CNN
F 2 "Package_TO_SOT_THT:TO-92_Inline" H 4600 3825 50  0001 L CIN
F 3 "http://www.fairchildsemi.com/ds/BC/BC547.pdf" H 4400 3900 50  0001 L CNN
	1    4400 3900
	1    0    0    -1  
$EndComp
$Comp
L Device:R R7
U 1 1 5DEEBA83
P 4500 3350
F 0 "R7" H 4570 3397 50  0000 L CNN
F 1 "2.2K" H 4570 3304 50  0000 L CNN
F 2 "" V 4430 3350 50  0001 C CNN
F 3 "~" H 4500 3350 50  0001 C CNN
	1    4500 3350
	1    0    0    -1  
$EndComp
$Comp
L Device:R R6
U 1 1 5DEEBD90
P 4350 3200
F 0 "R6" V 4140 3200 50  0000 C CNN
F 1 "100R" V 4233 3200 50  0000 C CNN
F 2 "" V 4280 3200 50  0001 C CNN
F 3 "~" H 4350 3200 50  0001 C CNN
	1    4350 3200
	0    1    1    0   
$EndComp
$Comp
L Device:CP1 C9
U 1 1 5DEEC17A
P 4850 3350
F 0 "C9" H 4965 3397 50  0000 L CNN
F 1 "100u" H 4965 3304 50  0000 L CNN
F 2 "" H 4850 3350 50  0001 C CNN
F 3 "~" H 4850 3350 50  0001 C CNN
	1    4850 3350
	1    0    0    -1  
$EndComp
Wire Wire Line
	4850 3200 4500 3200
Connection ~ 4500 3200
Wire Wire Line
	4500 3500 4500 3700
$Comp
L power:+12V #PWR06
U 1 1 5DEEE200
P 4150 3200
F 0 "#PWR06" H 4150 3050 50  0001 C CNN
F 1 "+12V" H 4165 3375 50  0000 C CNN
F 2 "" H 4150 3200 50  0001 C CNN
F 3 "" H 4150 3200 50  0001 C CNN
	1    4150 3200
	1    0    0    -1  
$EndComp
Wire Wire Line
	4200 3200 4150 3200
$Comp
L power:GND #PWR09
U 1 1 5DEEF8E6
P 4850 3500
F 0 "#PWR09" H 4850 3250 50  0001 C CNN
F 1 "GND" H 4855 3325 50  0000 C CNN
F 2 "" H 4850 3500 50  0001 C CNN
F 3 "" H 4850 3500 50  0001 C CNN
	1    4850 3500
	1    0    0    -1  
$EndComp
$Comp
L Device:C C6
U 1 1 5DEF270F
P 4250 4400
F 0 "C6" V 3995 4400 50  0000 C CNN
F 1 "0.002u" V 4088 4400 50  0000 C CNN
F 2 "" H 4288 4250 50  0001 C CNN
F 3 "~" H 4250 4400 50  0001 C CNN
	1    4250 4400
	0    1    1    0   
$EndComp
$Comp
L Device:C C8
U 1 1 5DEF32E7
P 4750 4400
F 0 "C8" V 4495 4400 50  0000 C CNN
F 1 "0.002u" V 4588 4400 50  0000 C CNN
F 2 "" H 4788 4250 50  0001 C CNN
F 3 "~" H 4750 4400 50  0001 C CNN
	1    4750 4400
	0    1    1    0   
$EndComp
$Comp
L power:GND #PWR07
U 1 1 5DEF35ED
P 4500 4100
F 0 "#PWR07" H 4500 3850 50  0001 C CNN
F 1 "GND" H 4505 3925 50  0000 C CNN
F 2 "" H 4500 4100 50  0001 C CNN
F 3 "" H 4500 4100 50  0001 C CNN
	1    4500 4100
	1    0    0    -1  
$EndComp
Wire Wire Line
	4200 3900 4100 3900
Wire Wire Line
	4100 3900 4100 4400
Wire Wire Line
	4500 3700 4900 3700
Wire Wire Line
	4900 3700 4900 4400
Connection ~ 4500 3700
Wire Wire Line
	4600 4400 4500 4400
$Comp
L Device:R R8
U 1 1 5DEF76B4
P 4500 4550
F 0 "R8" H 4570 4597 50  0000 L CNN
F 1 "2.2K" H 4570 4504 50  0000 L CNN
F 2 "" V 4430 4550 50  0001 C CNN
F 3 "~" H 4500 4550 50  0001 C CNN
	1    4500 4550
	1    0    0    -1  
$EndComp
Connection ~ 4500 4400
Wire Wire Line
	4500 4400 4400 4400
$Comp
L Device:R_POT RV1
U 1 1 5DEF7E92
P 4500 4850
F 0 "RV1" H 4430 4897 50  0000 R CNN
F 1 "10K" H 4430 4804 50  0000 R CNN
F 2 "" H 4500 4850 50  0001 C CNN
F 3 "~" H 4500 4850 50  0001 C CNN
	1    4500 4850
	1    0    0    -1  
$EndComp
Wire Wire Line
	4500 5000 4650 5000
Wire Wire Line
	4650 5000 4650 4850
$Comp
L Mechanical:MountingHole_Pad H5
U 1 1 5DEF9998
P 4500 5100
F 0 "H5" H 4400 5055 50  0000 R CNN
F 1 "RIG (3-4)" H 4400 5148 50  0000 R CNN
F 2 "" H 4500 5100 50  0001 C CNN
F 3 "~" H 4500 5100 50  0001 C CNN
	1    4500 5100
	-1   0    0    1   
$EndComp
Connection ~ 4500 5000
$Comp
L Device:R R2
U 1 1 5DEFB4F8
P 2400 3850
F 0 "R2" V 2190 3850 50  0000 C CNN
F 1 "330R" V 2283 3850 50  0000 C CNN
F 2 "" V 2330 3850 50  0001 C CNN
F 3 "~" H 2400 3850 50  0001 C CNN
	1    2400 3850
	0    1    1    0   
$EndComp
$Comp
L Device:R R3
U 1 1 5DEFC59B
P 2550 4200
F 0 "R3" H 2480 4153 50  0000 R CNN
F 1 "10K" H 2480 4246 50  0000 R CNN
F 2 "" V 2480 4200 50  0001 C CNN
F 3 "~" H 2550 4200 50  0001 C CNN
	1    2550 4200
	-1   0    0    1   
$EndComp
Wire Wire Line
	2550 3850 2550 4050
Connection ~ 2550 3850
Wire Wire Line
	2550 4350 2850 4350
Wire Wire Line
	2850 4350 2850 4050
$Comp
L power:GND #PWR04
U 1 1 5DF00492
P 2850 4350
F 0 "#PWR04" H 2850 4100 50  0001 C CNN
F 1 "GND" H 2855 4175 50  0000 C CNN
F 2 "" H 2850 4350 50  0001 C CNN
F 3 "" H 2850 4350 50  0001 C CNN
	1    2850 4350
	1    0    0    -1  
$EndComp
Connection ~ 2850 4350
Text GLabel 2250 3850 0    50   Input ~ 0
OUT
$Comp
L Mechanical:MountingHole_Pad H4
U 1 1 5DF0094B
P 2850 3550
F 0 "H4" H 2950 3600 50  0000 L CNN
F 1 "RIG (2-5)" H 2950 3507 50  0000 L CNN
F 2 "" H 2850 3550 50  0001 C CNN
F 3 "~" H 2850 3550 50  0001 C CNN
	1    2850 3550
	1    0    0    -1  
$EndComp
Text Notes 1100 7600 2    50   ~ 10
OSCILLATOR
$Comp
L Mechanical:MountingHole_Pad H3
U 1 1 5DF0A0A4
P 2200 4850
F 0 "H3" H 2100 4805 50  0000 R CNN
F 1 "RIG (1)" H 2100 4898 50  0000 R CNN
F 2 "" H 2200 4850 50  0001 C CNN
F 3 "~" H 2200 4850 50  0001 C CNN
	1    2200 4850
	-1   0    0    1   
$EndComp
$Comp
L power:GND #PWR03
U 1 1 5DF0A76D
P 2200 4750
F 0 "#PWR03" H 2200 4500 50  0001 C CNN
F 1 "GND" H 2205 4575 50  0000 C CNN
F 2 "" H 2200 4750 50  0001 C CNN
F 3 "" H 2200 4750 50  0001 C CNN
	1    2200 4750
	-1   0    0    1   
$EndComp
$Comp
L Device:R R5
U 1 1 5DF0FBD6
P 4250 5550
F 0 "R5" V 4040 5550 50  0000 C CNN
F 1 "15 K" V 4133 5550 50  0000 C CNN
F 2 "" V 4180 5550 50  0001 C CNN
F 3 "~" H 4250 5550 50  0001 C CNN
	1    4250 5550
	0    1    1    0   
$EndComp
$Comp
L Device:R R10
U 1 1 5DF108FD
P 4750 5550
F 0 "R10" V 4540 5550 50  0000 C CNN
F 1 "15 K" V 4633 5550 50  0000 C CNN
F 2 "" V 4680 5550 50  0001 C CNN
F 3 "~" H 4750 5550 50  0001 C CNN
	1    4750 5550
	0    1    1    0   
$EndComp
Wire Wire Line
	4100 4400 4100 5550
Connection ~ 4100 4400
Wire Wire Line
	4900 4400 4900 5550
Connection ~ 4900 4400
$Comp
L Device:C C7
U 1 1 5DF14387
P 4500 5950
F 0 "C7" H 4385 5903 50  0000 R CNN
F 1 "0.047u" H 4385 5996 50  0000 R CNN
F 2 "" H 4538 5800 50  0001 C CNN
F 3 "~" H 4500 5950 50  0001 C CNN
	1    4500 5950
	-1   0    0    1   
$EndComp
$Comp
L power:GND #PWR08
U 1 1 5DF14D72
P 4500 6100
F 0 "#PWR08" H 4500 5850 50  0001 C CNN
F 1 "GND" H 4505 5925 50  0000 C CNN
F 2 "" H 4500 6100 50  0001 C CNN
F 3 "" H 4500 6100 50  0001 C CNN
	1    4500 6100
	1    0    0    -1  
$EndComp
Wire Wire Line
	4400 5550 4500 5550
Wire Wire Line
	4500 5800 4500 5750
Connection ~ 4500 5550
Wire Wire Line
	4500 5550 4600 5550
$Comp
L Device:R_POT RV2
U 1 1 5DF1882D
P 5100 5900
F 0 "RV2" H 5030 5947 50  0000 R CNN
F 1 "10K" H 5030 5854 50  0000 R CNN
F 2 "" H 5100 5900 50  0001 C CNN
F 3 "~" H 5100 5900 50  0001 C CNN
	1    5100 5900
	1    0    0    -1  
$EndComp
$Comp
L power:GND #PWR010
U 1 1 5DF190AA
P 5100 6050
F 0 "#PWR010" H 5100 5800 50  0001 C CNN
F 1 "GND" H 5105 5875 50  0000 C CNN
F 2 "" H 5100 6050 50  0001 C CNN
F 3 "" H 5100 6050 50  0001 C CNN
	1    5100 6050
	1    0    0    -1  
$EndComp
Wire Wire Line
	5100 5750 4500 5750
Connection ~ 4500 5750
Wire Wire Line
	4500 5750 4500 5550
Text GLabel 5500 5600 1    50   Input ~ 10
INPUT
Wire Notes Line
	7300 3850 11200 3850
$Comp
L Device:R R12
U 1 1 5DF1CE91
P 8800 4800
F 0 "R12" H 8730 4753 50  0000 R CNN
F 1 "1K" H 8730 4846 50  0000 R CNN
F 2 "" V 8730 4800 50  0001 C CNN
F 3 "~" H 8800 4800 50  0001 C CNN
	1    8800 4800
	-1   0    0    1   
$EndComp
$Comp
L Device:R R13
U 1 1 5DF1D5F0
P 9100 4800
F 0 "R13" H 9030 4753 50  0000 R CNN
F 1 "1K" H 9030 4846 50  0000 R CNN
F 2 "" V 9030 4800 50  0001 C CNN
F 3 "~" H 9100 4800 50  0001 C CNN
	1    9100 4800
	-1   0    0    1   
$EndComp
$Comp
L Device:C C16
U 1 1 5DF1DCB0
P 9700 5300
F 0 "C16" V 9955 5300 50  0000 C CNN
F 1 "0.01u" V 9862 5300 50  0000 C CNN
F 2 "" H 9738 5150 50  0001 C CNN
F 3 "~" H 9700 5300 50  0001 C CNN
	1    9700 5300
	0    -1   -1   0   
$EndComp
$Comp
L Device:C C17
U 1 1 5DF1E34D
P 9700 5850
F 0 "C17" V 9955 5850 50  0000 C CNN
F 1 "0.01u" V 9862 5850 50  0000 C CNN
F 2 "" H 9738 5700 50  0001 C CNN
F 3 "~" H 9700 5850 50  0001 C CNN
	1    9700 5850
	0    -1   -1   0   
$EndComp
$Comp
L Mechanical:MountingHole_Pad H6
U 1 1 5DF1E9D9
P 8800 4250
F 0 "H6" H 8900 4300 50  0000 L CNN
F 1 "Dit" H 8900 4207 50  0000 L CNN
F 2 "" H 8800 4250 50  0001 C CNN
F 3 "~" H 8800 4250 50  0001 C CNN
	1    8800 4250
	1    0    0    -1  
$EndComp
$Comp
L Mechanical:MountingHole_Pad H7
U 1 1 5DF1F1E7
P 9100 4250
F 0 "H7" H 9200 4300 50  0000 L CNN
F 1 "Dah" H 9200 4207 50  0000 L CNN
F 2 "" H 9100 4250 50  0001 C CNN
F 3 "~" H 9100 4250 50  0001 C CNN
	1    9100 4250
	1    0    0    -1  
$EndComp
$Comp
L Mechanical:MountingHole_Pad H8
U 1 1 5DF1F54D
P 9500 4250
F 0 "H8" H 9600 4300 50  0000 L CNN
F 1 "Ground" H 9600 4207 50  0000 L CNN
F 2 "" H 9500 4250 50  0001 C CNN
F 3 "~" H 9500 4250 50  0001 C CNN
	1    9500 4250
	1    0    0    -1  
$EndComp
$Comp
L power:GND #PWR017
U 1 1 5DF1F925
P 9850 6000
F 0 "#PWR017" H 9850 5750 50  0001 C CNN
F 1 "GND" H 9855 5825 50  0000 C CNN
F 2 "" H 9850 6000 50  0001 C CNN
F 3 "" H 9850 6000 50  0001 C CNN
	1    9850 6000
	1    0    0    -1  
$EndComp
Wire Wire Line
	8800 4350 8800 4650
Wire Wire Line
	9100 4350 9100 4650
Wire Wire Line
	9550 5300 8800 5300
Wire Wire Line
	8800 5300 8800 4950
Wire Wire Line
	9100 4950 9100 5850
Wire Wire Line
	9100 5850 9550 5850
Wire Wire Line
	9850 6000 9850 5850
Wire Wire Line
	9850 4350 9500 4350
Connection ~ 9850 5300
Wire Wire Line
	9850 5300 9850 4350
Connection ~ 9850 5850
Wire Wire Line
	9850 5850 9850 5300
Text GLabel 8800 6050 3    50   Input ~ 0
DIT
Text GLabel 9100 6000 3    50   Input ~ 0
DAH
Wire Wire Line
	8800 5300 8800 6050
Connection ~ 8800 5300
Wire Wire Line
	9100 5850 9100 6000
Connection ~ 9100 5850
Wire Notes Line
	7300 500  7300 6500
$Comp
L Amplifier_Audio:LM386 U3
U 1 1 5DF39A85
P 8700 2100
F 0 "U3" H 9045 2147 50  0000 L CNN
F 1 "LM386" H 9045 2054 50  0000 L CNN
F 2 "Package_SO:SOIC-8_3.9x4.9mm_P1.27mm" H 8800 2200 50  0001 C CNN
F 3 "http://www.ti.com/lit/ds/symlink/lm386.pdf" H 8900 2300 50  0001 C CNN
	1    8700 2100
	1    0    0    -1  
$EndComp
Text GLabel 8300 2000 0    50   Input ~ 10
INPUT
Wire Wire Line
	8400 2000 8300 2000
$Comp
L power:+12V #PWR015
U 1 1 5DF3C32A
P 8600 1400
F 0 "#PWR015" H 8600 1250 50  0001 C CNN
F 1 "+12V" H 8615 1575 50  0000 C CNN
F 2 "" H 8600 1400 50  0001 C CNN
F 3 "" H 8600 1400 50  0001 C CNN
	1    8600 1400
	1    0    0    -1  
$EndComp
Wire Wire Line
	8600 1400 8600 1800
$Comp
L Device:R_POT RV4
U 1 1 5DF3ED59
P 8850 2700
F 0 "RV4" V 8640 2700 50  0000 C CNN
F 1 "10K" V 8733 2700 50  0000 C CNN
F 2 "" H 8850 2700 50  0001 C CNN
F 3 "~" H 8850 2700 50  0001 C CNN
	1    8850 2700
	0    1    1    0   
$EndComp
$Comp
L Device:CP1 C13
U 1 1 5DF44BF4
P 9100 2550
F 0 "C13" H 8985 2503 50  0000 R CNN
F 1 "10u" H 8985 2596 50  0000 R CNN
F 2 "" H 9100 2550 50  0001 C CNN
F 3 "~" H 9100 2550 50  0001 C CNN
	1    9100 2550
	-1   0    0    1   
$EndComp
Wire Wire Line
	9000 2700 9100 2700
Wire Wire Line
	9100 2400 8800 2400
$Comp
L Device:CP1 C12
U 1 1 5DF54DB0
P 8700 1650
F 0 "C12" H 8585 1603 50  0000 R CNN
F 1 "10u" H 8585 1696 50  0000 R CNN
F 2 "" H 8700 1650 50  0001 C CNN
F 3 "~" H 8700 1650 50  0001 C CNN
	1    8700 1650
	-1   0    0    1   
$EndComp
$Comp
L power:GND #PWR016
U 1 1 5DF55AC3
P 8700 1500
F 0 "#PWR016" H 8700 1250 50  0001 C CNN
F 1 "GND" V 8705 1371 50  0000 R CNN
F 2 "" H 8700 1500 50  0001 C CNN
F 3 "" H 8700 1500 50  0001 C CNN
	1    8700 1500
	0    -1   -1   0   
$EndComp
$Comp
L Device:CP1 C15
U 1 1 5DF56807
P 9600 2100
F 0 "C15" V 9855 2100 50  0000 C CNN
F 1 "220u" V 9762 2100 50  0000 C CNN
F 2 "" H 9600 2100 50  0001 C CNN
F 3 "~" H 9600 2100 50  0001 C CNN
	1    9600 2100
	0    -1   -1   0   
$EndComp
$Comp
L Device:C C14
U 1 1 5DF57060
P 9400 2300
F 0 "C14" H 9515 2347 50  0000 L CNN
F 1 "0.047" H 9515 2254 50  0000 L CNN
F 2 "" H 9438 2150 50  0001 C CNN
F 3 "~" H 9400 2300 50  0001 C CNN
	1    9400 2300
	1    0    0    -1  
$EndComp
$Comp
L Device:R R14
U 1 1 5DF5810F
P 9400 2600
F 0 "R14" H 9470 2647 50  0000 L CNN
F 1 "10R" H 9470 2554 50  0000 L CNN
F 2 "" V 9330 2600 50  0001 C CNN
F 3 "~" H 9400 2600 50  0001 C CNN
	1    9400 2600
	1    0    0    -1  
$EndComp
Wire Wire Line
	8600 2400 8600 2950
Wire Wire Line
	8600 2950 9400 2950
Wire Wire Line
	9400 2950 9400 2750
Wire Wire Line
	9000 2100 9400 2100
Wire Wire Line
	9400 2150 9400 2100
Connection ~ 9400 2100
Wire Wire Line
	9400 2100 9450 2100
Wire Wire Line
	8400 2200 8400 2950
Wire Wire Line
	8400 2950 8600 2950
Connection ~ 8600 2950
$Comp
L power:GND #PWR014
U 1 1 5DF64108
P 8400 2950
F 0 "#PWR014" H 8400 2700 50  0001 C CNN
F 1 "GND" H 8405 2775 50  0000 C CNN
F 2 "" H 8400 2950 50  0001 C CNN
F 3 "" H 8400 2950 50  0001 C CNN
	1    8400 2950
	1    0    0    -1  
$EndComp
Connection ~ 8400 2950
$Comp
L Mechanical:MountingHole_Pad H9
U 1 1 5DF65178
P 10000 2100
F 0 "H9" V 9953 2249 50  0000 L CNN
F 1 "SPKR +" V 10046 2249 50  0000 L CNN
F 2 "" H 10000 2100 50  0001 C CNN
F 3 "~" H 10000 2100 50  0001 C CNN
	1    10000 2100
	0    1    1    0   
$EndComp
$Comp
L Mechanical:MountingHole_Pad H10
U 1 1 5DF65E7E
P 10000 2950
F 0 "H10" V 9953 3099 50  0000 L CNN
F 1 "SPKR -" V 10046 3099 50  0000 L CNN
F 2 "" H 10000 2950 50  0001 C CNN
F 3 "~" H 10000 2950 50  0001 C CNN
	1    10000 2950
	0    1    1    0   
$EndComp
Wire Wire Line
	9900 2100 9750 2100
Wire Wire Line
	9900 2950 9400 2950
Connection ~ 9400 2950
$Comp
L Transistor_FET:2N7000 Q1
U 1 1 5DECDA5D
P 2750 3850
F 0 "Q1" H 2955 3897 50  0000 L CNN
F 1 "2N7000" H 2955 3804 50  0000 L CNN
F 2 "Package_TO_SOT_THT:TO-92_Inline" H 2950 3775 50  0001 L CIN
F 3 "https://www.fairchildsemi.com/datasheets/2N/2N7000.pdf" H 2750 3850 50  0001 L CNN
	1    2750 3850
	1    0    0    -1  
$EndComp
Wire Wire Line
	8700 2400 8700 2700
Wire Wire Line
	8700 2700 8700 2850
Wire Wire Line
	8700 2850 8850 2850
Connection ~ 8700 2700
$Comp
L Device:C C10
U 1 1 5DEE5314
P 5500 5750
F 0 "C10" H 5385 5703 50  0000 R CNN
F 1 "0.1u" H 5385 5796 50  0000 R CNN
F 2 "" H 5538 5600 50  0001 C CNN
F 3 "~" H 5500 5750 50  0001 C CNN
	1    5500 5750
	1    0    0    -1  
$EndComp
Wire Wire Line
	5250 5900 5500 5900
Text Notes 10500 3750 0    50   ~ 10
Audio Amplifier
$Comp
L Regulator_Linear:AMS1117-5.0 U1
U 1 1 5E452A60
P 2750 1000
F 0 "U1" H 2750 1245 50  0000 C CNN
F 1 "AMS1117-5.0" H 2750 1152 50  0000 C CNN
F 2 "Package_TO_SOT_SMD:SOT-223-3_TabPin2" H 2750 1200 50  0001 C CNN
F 3 "http://www.advanced-monolithic.com/pdf/ds1117.pdf" H 2850 750 50  0001 C CNN
	1    2750 1000
	1    0    0    -1  
$EndComp
$EndSCHEMATC
